events.js:141
      throw er; // Unhandled 'error' event
      ^

Error: listen EADDRINUSE :::3000
    at Object.exports._errnoException (util.js:870:11)
    at exports._exceptionWithHostPort (util.js:893:20)
    at Server._listen2 (net.js:1231:14)
    at listen (net.js:1267:10)
    at Server.listen (net.js:1363:5)
    at Object.<anonymous> (/home/writesav/public_html/wp-content/themes/writesaver/js/nodeServer.js:79:8)
    at Module._compile (module.js:409:26)
    at Object.Module._extensions..js (module.js:416:10)
    at Module.load (module.js:343:32)
    at Function.Module._load (module.js:300:12)
Connected
adduser
Connected
adduser
adduser
adduser
adduser
adduser
adduser
adduser
adduser
adduser
adduser
adduser
adduser
adduser
adduser
adduser
adduser
adduser
adduser
adduser
adduser
adduser
adduser
adduser
adduser
adduser
adduser
adduser
adduser
adduser
adduser
adduser
adduser
adduser
adduser
adduser
adduser
adduser
adduser
adduser
adduser
adduser
adduser
adduser
adduser
adduser
adduser
adduser
adduser
adduser
adduser
adduser
adduser
adduser
adduser
adduser
adduser
adduser
adduser
adduser
adduser
adduser
adduser
adduser
adduser
adduser
adduser
adduser
adduser
adduser
adduser
adduser
adduser
adduser
adduser
adduser
adduser
adduser
adduser
adduser
adduser
adduser
adduser
adduser
adduser
adduser
adduser
adduser
adduser
adduser
adduser
adduser
adduser
adduser
adduser
adduser
adduser
adduser
adduser
adduser
adduser
adduser
adduser
adduser
adduser
adduser
adduser
adduser
adduser
adduser
adduser
adduser
adduser
adduser
adduser
adduser
adduser
adduser
adduser
adduser
adduser
adduser
adduser
adduser
adduser
adduser
adduser
adduser
adduser
adduser
adduser
adduser
adduser
adduser
adduser
adduser
adduser
adduser
adduser
adduser
adduser
adduser
adduser
adduser
adduser
adduser
adduser
adduser
adduser
adduser
adduser
adduser
adduser
adduser
adduser
adduser
adduser
adduser
adduser
adduser
adduser
adduser
adduser
adduser
adduser
adduser
adduser
adduser
adduser
adduser
adduser
adduser
adduser
adduser
adduser
adduser
adduser
adduser
adduser
adduser
adduser
adduser
adduser
adduser
adduser
adduser
adduser
adduser
adduser
adduser
adduser
adduser
adduser
adduser
adduser
adduser
adduser
adduser
adduser
adduser
adduser
adduser
adduser
adduser
adduser
adduser
adduser
adduser
adduser
adduser
adduser
adduser
adduser
adduser
adduser
adduser
adduser
adduser
adduser
adduser
adduser
adduser
adduser
adduser
adduser
adduser
adduser
adduser
adduser
adduser
adduser
adduser
adduser
adduser
adduser
adduser
adduser
adduser
adduser
adduser
adduser
adduser
adduser
adduser
adduser
adduser
adduser
adduser
adduser
adduser
adduser
adduser
adduser
adduser
adduser
adduser
adduser
adduser
adduser
adduser
adduser
adduser
adduser
adduser
adduser
adduser
adduser
adduser
adduser
adduser
adduser
adduser
adduser
adduser
adduser
adduser
adduser
adduser
adduser
adduser
adduser
adduser
adduser
Connected
adduser
adduser
adduser
adduser
adduser
adduser
adduser
adduser
adduser
adduser
adduser
adduser
adduser
adduser
adduser
adduser
adduser
adduser
adduser
adduser
adduser
adduser
adduser
adduser
adduser
adduser
adduser
adduser
adduser
adduser
adduser
adduser
adduser
adduser
adduser
adduser
adduser
adduser
adduser
adduser
adduser
adduser
adduser
adduser
adduser
adduser
adduser
adduser
adduser
adduser
adduser
adduser
adduser
adduser
adduser
adduser
adduser
adduser
adduser
adduser
adduser
Connected
adduser
adduser
adduser
adduser
adduser
adduser
adduser
adduser
adduser
adduser
adduser
adduser
adduser
adduser
adduser
adduser
adduser
adduser
Connected
adduser
adduser
adduser
adduser
adduser
adduser
adduser
adduser
adduser
adduser
adduser
adduser
adduser
adduser
adduser
adduser
adduser
adduser
adduser
adduser
adduser
adduser
adduser
adduser
adduser
adduser
adduser
adduser
adduser
adduser
adduser
adduser
adduser
adduser
adduser
adduser
adduser
adduser
adduser
adduser
adduser
adduser
adduser
adduser
adduser
adduser
adduser
adduser
adduser
adduser
adduser
adduser
adduser
adduser
adduser
adduser
adduser
adduser
Connected
Connected
adduser
adduser
adduser
adduser
adduser
adduser
adduser
adduser
adduser
adduser
adduser
adduser
adduser
adduser
adduser
adduser
adduser
adduser
adduser
adduser
adduser
adduser
adduser
adduser
adduser
adduser
adduser
adduser
adduser
adduser
adduser
adduser
adduser
adduser
adduser
adduser
adduser
adduser
adduser
adduser
adduser
adduser
adduser
adduser
adduser
adduser
adduser
adduser
adduser
adduser
adduser
adduser
adduser
adduser
adduser
adduser
adduser
adduser
adduser
adduser
adduser
adduser
adduser
adduser
adduser
adduser
adduser
adduser
adduser
adduser
adduser
adduser
adduser
adduser
adduser
adduser
adduser
adduser
adduser
adduser
adduser
adduser
adduser
adduser
adduser
adduser
adduser
adduser
adduser
adduser
adduser
adduser
adduser
adduser
adduser
adduser
adduser
adduser
adduser
adduser
adduser
adduser
adduser
adduser
adduser
adduser
adduser
adduser
adduser
adduser
adduser
adduser
adduser
adduser
adduser
adduser
adduser
adduser
adduser
adduser
adduser
adduser
adduser
adduser
Connected
adduser
adduser
adduser
adduser
adduser
adduser
adduser
adduser
adduser
adduser
adduser
adduser
adduser
adduser
adduser
adduser
adduser
adduser
adduser
adduser
adduser
adduser
adduser
adduser
adduser
adduser
adduser
adduser
adduser
adduser
adduser
adduser
adduser
Connected
adduser
adduser
adduser
adduser
adduser
Connected
adduser
adduser
adduser
adduser
adduser
adduser
adduser
adduser
adduser
adduser
adduser
adduser
adduser
adduser
adduser
adduser
adduser
adduser
adduser
adduser
adduser
adduser
adduser
adduser
adduser
adduser
adduser
adduser
adduser
adduser
Connected
adduser
Connected
adduser
Connected
adduser
Connected
adduser
adduser
adduser
adduser
adduser
adduser
adduser
adduser
adduser
adduser
adduser
adduser
adduser
adduser
adduser
adduser
adduser
adduser
adduser
adduser
adduser
adduser
adduser
adduser
adduser
adduser
adduser
adduser
adduser
adduser
adduser
adduser
adduser
adduser
adduser
adduser
adduser
adduser
adduser
adduser
adduser
adduser
adduser
adduser
adduser
adduser
adduser
adduser
adduser
adduser
adduser
adduser
adduser
adduser
adduser
adduser
adduser
adduser
adduser
adduser
adduser
adduser
adduser
adduser
adduser
adduser
adduser
adduser
adduser
adduser
adduser
adduser
adduser
adduser
adduser
adduser
adduser
adduser
adduser
adduser
adduser
adduser
adduser
adduser
adduser
Connected
Connected
adduser
adduser
Connected
adduser
Connected
adduser
Connected
adduser
adduser
adduser
adduser
adduser
adduser
adduser
adduser
adduser
adduser
adduser
adduser
adduser
adduser
adduser
adduser
adduser
adduser
adduser
adduser
adduser
adduser
adduser
adduser
adduser
adduser
adduser
adduser
adduser
adduser
adduser
adduser
adduser
adduser
adduser
adduser
adduser
adduser
adduser
adduser
adduser
adduser
adduser
adduser
adduser
adduser
adduser
adduser
adduser
adduser
adduser
adduser
adduser
adduser
adduser
adduser
adduser
adduser
adduser
adduser
adduser
adduser
adduser
adduser
adduser
adduser
adduser
adduser
adduser
adduser
adduser
adduser
adduser
adduser
adduser
adduser
adduser
adduser
adduser
adduser
adduser
adduser
adduser
adduser
adduser
adduser
adduser
adduser
adduser
adduser
adduser
adduser
adduser
adduser
adduser
adduser
adduser
adduser
adduser
adduser
adduser
adduser
adduser
adduser
adduser
adduser
adduser
adduser
adduser
adduser
adduser
adduser
adduser
adduser
adduser
adduser
adduser
adduser
adduser
adduser
adduser
adduser
adduser
adduser
adduser
adduser
adduser
adduser
adduser
adduser
adduser
adduser
adduser
adduser
adduser
adduser
adduser
adduser
adduser
adduser
adduser
adduser
adduser
adduser
adduser
adduser
adduser
adduser
adduser
adduser
adduser
adduser
adduser
adduser
adduser
adduser
adduser
adduser
adduser
adduser
adduser
adduser
adduser
adduser
adduser
adduser
adduser
adduser
adduser
adduser
adduser
adduser
adduser
adduser
adduser
adduser
adduser
adduser
adduser
adduser
adduser
adduser
adduser
adduser
adduser
adduser
adduser
adduser
adduser
adduser
adduser
adduser
adduser
adduser
adduser
adduser
adduser
adduser
adduser
adduser
adduser
adduser
adduser
adduser
adduser
adduser
adduser
adduser
adduser
adduser
adduser
adduser
adduser
adduser
adduser
adduser
adduser
adduser
adduser
adduser
adduser
adduser
adduser
adduser
adduser
adduser
adduser
adduser
adduser
adduser
adduser
adduser
adduser
adduser
adduser
adduser
adduser
adduser
adduser
adduser
adduser
adduser
adduser
adduser
adduser
adduser
adduser
adduser
adduser
adduser
adduser
adduser
adduser
adduser
adduser
adduser
adduser
adduser
adduser
adduser
adduser
adduser
Connected
adduser
adduser
adduser
adduser
adduser
adduser
adduser
adduser
adduser
adduser
adduser
adduser
adduser
adduser
adduser
adduser
adduser
adduser
adduser
adduser
adduser
adduser
adduser
adduser
adduser
Connected
adduser
Connected
adduser
Connected
adduser
Connected
adduser
Connected
adduser
Connected
adduser
Connected
adduser
adduser
adduser
adduser
adduser
adduser
adduser
adduser
adduser
adduser
adduser
adduser
adduser
adduser
Connected
adduser
Connected
adduser
Connected
adduser
Connected
adduser
Connected
adduser
adduser
adduser
Connected
adduser
adduser
adduser
adduser
adduser
adduser
adduser
adduser
adduser
adduser
adduser
adduser
adduser
adduser
adduser
adduser
adduser
adduser
adduser
adduser
adduser
adduser
adduser
adduser
adduser
adduser
adduser
adduser
adduser
adduser
adduser
adduser
adduser
adduser
adduser
adduser
adduser
adduser
adduser
adduser
adduser
adduser
adduser
adduser
adduser
adduser
adduser
adduser
adduser
adduser
adduser
adduser
adduser
adduser
adduser
adduser
adduser
adduser
adduser
adduser
adduser
adduser
adduser
adduser
adduser
adduser
adduser
adduser
adduser
adduser
adduser
adduser
adduser
adduser
adduser
adduser
adduser
adduser
adduser
adduser
adduser
adduser
adduser
adduser
adduser
adduser
adduser
adduser
adduser
adduser
adduser
adduser
adduser
adduser
adduser
adduser
adduser
adduser
adduser
adduser
adduser
adduser
adduser
adduser
adduser
adduser
adduser
adduser
adduser
adduser
adduser
adduser
adduser
adduser
adduser
adduser
adduser
adduser
adduser
adduser
adduser
adduser
adduser
adduser
adduser
adduser
adduser
adduser
Connected
adduser
Connected
adduser
Connected
adduser
adduser
adduser
adduser
adduser
adduser
adduser
adduser
adduser
Connected
adduser
Connected
adduser
Connected
adduser
Connected
adduser
Connected
adduser
Connected
adduser
Connected
adduser
Connected
adduser
adduser
Connected
adduser
events.js:141
      throw er; // Unhandled 'error' event
      ^

Error: listen EADDRINUSE :::49999
    at Object.exports._errnoException (util.js:870:11)
    at exports._exceptionWithHostPort (util.js:893:20)
    at Server._listen2 (net.js:1231:14)
    at listen (net.js:1267:10)
    at Server.listen (net.js:1363:5)
    at Object.<anonymous> (/home/writesav/public_html/wp-content/themes/writesaver/js/nodeServer.js:79:8)
    at Module._compile (module.js:409:26)
    at Object.Module._extensions..js (module.js:416:10)
    at Module.load (module.js:343:32)
    at Function.Module._load (module.js:300:12)
Connected
Connected
adduser
adduser
Connected
Connected
adduser
adduser
Connected
Connected
adduser
adduser
fs.js:549
  return binding.open(pathModule._makeLong(path), stringToFlags(flags), mode);
                 ^

Error: ENOENT: no such file or directory, open '/home/writesav/public_html/wp-content/themes/writesaver/js/ssl/keys/c1021_5568f_f25b8ca5271d4b8d1378544b0bdf5b43.key'
    at Error (native)
    at Object.fs.openSync (fs.js:549:18)
    at Object.fs.readFileSync (fs.js:397:15)
    at Object.<anonymous> (/home/writesav/public_html/wp-content/themes/writesaver/js/nodeServer.js:8:13)
    at Module._compile (module.js:409:26)
    at Object.Module._extensions..js (module.js:416:10)
    at Module.load (module.js:343:32)
    at Function.Module._load (module.js:300:12)
    at Function.Module.runMain (module.js:441:10)
    at startup (node.js:139:18)
